…
``` r
calibration_tbl %>%
  modeltime_forecast(
    new_data = testing(splits),
    actual_data = data
  )
```

    ## # Forecast Results
    ## 

    ## Conf Method: conformal_default | Conf Interval: 0.95 | Conf By ID: FALSE
    ## (GLOBAL CONFIDENCE)

    ## # A tibble: 189 × 7
    ##    .model_id .model_desc .key   .index     .value .conf_lo .conf_hi
    ##        <int> <chr>       <fct>  <date>      <dbl>    <dbl>    <dbl>
    ##  1        NA ACTUAL      actual 1949-01-01    112       NA       NA
    ##  2        NA ACTUAL      actual 1949-02-01    118       NA       NA
    ##  3        NA ACTUAL      actual 1949-03-01    132       NA       NA
    ##  4        NA ACTUAL      actual 1949-04-01    129       NA       NA
    ##  5        NA ACTUAL      actual 1949-05-01    121       NA       NA
    ##  6        NA ACTUAL      actual 1949-06-01    135       NA       NA
    ##  7        NA ACTUAL      actual 1949-07-01    148       NA       NA
    ##  8        NA ACTUAL      actual 1949-08-01    148       NA       NA
    ##  9        NA ACTUAL      actual 1949-09-01    136       NA       NA
    ## 10        NA ACTUAL      actual 1949-10-01    119       NA       NA
    ## # ℹ 179 more rows
…
