…
The `workflow_map()` function from the `workflows` package allows us to
apply the model tuning process across different models and
hyperparameter combinations. We specify the resampling method, the grid
size for hyperparameter tuning, and the metrics we want to evaluate.

``` r
Model_tuned %>% collect_metrics() %>%
  filter(.metric == "accuracy") %>%
  select(wflow_id, .metric, mean, std_err) %>%
  arrange(desc(mean))
```

    ## # A tibble: 30 × 4
    ##    wflow_id                     .metric   mean std_err
    ##    <chr>                        <chr>    <dbl>   <dbl>
    ##  1 rec_multinom_reg_glmnet      accuracy 0.983  0.0167
    ##  2 rec_multinom_reg_glmnet      accuracy 0.983  0.0167
    ##  3 rec_multinom_reg_glmnet      accuracy 0.983  0.0167
    ##  4 rec_multinom_reg_glmnet      accuracy 0.983  0.0167
    ##  5 rec_multinom_reg_glmnet      accuracy 0.983  0.0167
    ##  6 rec_multinom_reg_glmnet      accuracy 0.983  0.0167
    ##  7 rec_multinom_reg_glmnet      accuracy 0.967  0.0243
    ##  8 rec_multinom_reg_glmnet      accuracy 0.967  0.0243
    ##  9 rec_rand_forest_randomForest accuracy 0.958  0.0132
    ## 10 rec_rand_forest_randomForest accuracy 0.958  0.0228
    ## # ℹ 20 more rows
…
## Model Evaluation

### Collect predictions

``` r
final_workflow %>% last_fit(iris_split,
                            metrics = metric_set(accuracy, roc_auc, kap)) %>% 
  collect_predictions()
```

    ## # A tibble: 30 × 8
    ##    .pred_class .pred_setosa .pred_versicolor .pred_virginica id     .row Species
    ##    <fct>              <dbl>            <dbl>           <dbl> <chr> <int> <fct>  
    ##  1 setosa             0.999        0.000678         2.83e-19 trai…     1 setosa 
    ##  2 setosa             0.996        0.00437          1.87e-17 trai…     2 setosa 
    ##  3 setosa             0.999        0.000522         8.89e-19 trai…     3 setosa 
    ##  4 setosa             0.999        0.000970         1.81e-19 trai…    11 setosa 
    ##  5 setosa             0.999        0.001000         1.10e-18 trai…    18 setosa 
    ##  6 setosa             0.996        0.00393          2.31e-18 trai…    19 setosa 
    ##  7 setosa             0.999        0.00118          7.30e-19 trai…    28 setosa 
    ##  8 setosa             1.000        0.0000283        7.01e-22 trai…    33 setosa 
    ##  9 setosa             0.998        0.00188          8.78e-19 trai…    36 setosa 
    ## 10 setosa             1.000        0.000364         1.44e-18 trai…    48 setosa 
    ## # ℹ 20 more rows
    ## # ℹ 1 more variable: .config <chr>
…
### ROC Curve

``` r
final_workflow %>% last_fit(iris_split,
                            metrics = metric_set(accuracy, roc_auc, kap)) %>% 
  collect_predictions()  %>% 
  roc_curve(truth = Species, 
                                      .pred_setosa, .pred_versicolor, .pred_virginica,
                                      estimator = "hand_till")
```

    ## # A tibble: 96 × 4
    ##    .level  .threshold specificity sensitivity
    ##    <chr>        <dbl>       <dbl>       <dbl>
    ##  1 setosa -Inf             0                1
    ##  2 setosa    6.30e-12      0                1
    ##  3 setosa    2.17e-11      0.0500           1
    ##  4 setosa    4.91e-11      0.1              1
    ##  5 setosa    8.01e-10      0.15             1
    ##  6 setosa    3.98e- 9      0.2              1
    ##  7 setosa    4.20e- 6      0.25             1
    ##  8 setosa    4.23e- 6      0.3              1
    ##  9 setosa    1.36e- 5      0.35             1
    ## 10 setosa    3.34e- 5      0.4              1
    ## # ℹ 86 more rows
…
